Simple Emax model fit with Stan • rstanemax
…
Prediction of response with new exposure data

posterior_predict() function allows users to predict the
response using new exposure data. If newdata is not
provided, the function returns the prediction on the exposures in
original data. The default output is a matrix of posterior predictions,
but you can also specify “dataframe” or “tibble” that contain posterior
predictions in a long format. See help of
rstanemax::posterior_predict() for the description of two
predictions, respHat and response.

response.pred <- posterior_predict(fit.emax, newdata = c(0, 100, 1000), returnType = "tibble")

response.pred %>% select(mcmcid, exposure, respHat, response)
#> # A tibble: 3,000 × 4
#>    mcmcid exposure   respHat response
#>     <int>    <dbl> <dbl[1d]>    <dbl>
#>  1      1        0     14.8     16.9 
#>  2      1      100     54.7     81.8 
#>  3      1     1000     91.6     84.6 
#>  4      2        0      7.28    -4.99
#>  5      2      100     62.1     59.1 
#>  6      2     1000     93.4     86.9 
#>  7      3        0      6.05   -13.2 
#>  8      3      100     55.3     55.4 
#>  9      3     1000     93.9     85.0 
#> 10      4        0      6.92    44.1 
#> # … with 2,990 more rows

You can also get quantiles of predictions with
posterior_predict_quantile() function.

resp.pred.quantile <- posterior_predict_quantile(fit.emax, newdata = seq(0, 5000, by = 100))
resp.pred.quantile
#> # A tibble: 51 × 11
#>    exposure covemax covec50 cove0 Covariates ci_low ci_med ci_high pi_low pi_med
#>       <dbl> <fct>   <fct>   <fct> <chr>       <dbl>  <dbl>   <dbl>  <dbl>  <dbl>
#>  1        0 1       1       1     ""          -2.73   5.35    13.5  -23.7   5.84
#>  2      100 1       1       1     ""          52.2   58.9     65.1   30.0  58.2 
#>  3      200 1       1       1     ""          67.2   73.0     78.2   46.2  73.1 
#>  4      300 1       1       1     ""          74.2   79.5     84.4   51.6  78.6 
#>  5      400 1       1       1     ""          78.1   83.2     88.1   55.2  83.8 
#>  6      500 1       1       1     ""          80.5   85.6     90.6   59.6  87.2 
#>  7      600 1       1       1     ""          82.0   87.3     92.5   60.7  87.5 
#>  8      700 1       1       1     ""          83.1   88.6     94.0   60.4  88.6 
#>  9      800 1       1       1     ""          84.0   89.6     95.3   61.8  88.7 
#> 10      900 1       1       1     ""          84.8   90.4     96.4   62.8  90.7 
#> # … with 41 more rows, and 1 more variable: pi_high <dbl>
…
Posterior draws of Emax model parameters can be extracted with
extract_param() function.

posterior.fit.emax <- extract_param(fit.emax)
posterior.fit.emax
#> # A tibble: 1,000 × 6
#>    mcmcid  emax     e0  ec50     gamma     sigma
#>     <int> <dbl>  <dbl> <dbl> <dbl[1d]> <dbl[1d]>
#>  1      1  85.7 14.8   115.          1      16.7
#>  2      2  92.0  7.28   67.7         1      14.8
#>  3      3  96.2  6.05   95.2         1      18.7
#>  4      4  97.7  6.92   90.6         1      17.0
#>  5      5  90.9 12.7   107.          1      19.0
#>  6      6  97.0 -4.47   41.7         1      15.2
#>  7      7  96.7  0.919  64.9         1      13.9
#>  8      8  81.3 10.5    80.8         1      17.7
#>  9      9  87.9 10.2    68.8         1      16.2
#> 10     10  91.7  5.52   72.6         1      17.0
#> # … with 990 more rows
…
