Simple Emax model fit with Stan • rstanemax
…
Prediction of response with new exposure data

posterior_predict() function allows users to predict the
response using new exposure data. If newdata is not
provided, the function returns the prediction on the exposures in
original data. The default output is a matrix of posterior predictions,
but you can also specify “dataframe” or “tibble” that contain posterior
predictions in a long format. See help of
rstanemax::posterior_predict() for the description of two
predictions, respHat and response.

response.pred <- posterior_predict(fit.emax, newdata = c(0, 100, 1000), returnType = "tibble")

response.pred %>% select(mcmcid, exposure, respHat, response)
#> # A tibble: 3,000 × 4
#>    mcmcid exposure   respHat response
#>     <int>    <dbl> <dbl[1d]>    <dbl>
#>  1      1        0     11.8      14.1
#>  2      1      100     55.4      84.5
#>  3      1     1000     88.0      80.4
#>  4      2        0     -2.84    -17.0
#>  5      2      100     61.2      57.7
#>  6      2     1000     90.8      83.3
#>  7      3        0      4.01    -10.1
#>  8      3      100     57.5      57.6
#>  9      3     1000     92.1      85.6
#> 10      4        0      6.34     42.3
#> # ℹ 2,990 more rows

You can also get quantiles of predictions with
posterior_predict_quantile() function.

resp.pred.quantile <- posterior_predict_quantile(fit.emax, newdata = seq(0, 5000, by = 100))
resp.pred.quantile
#> # A tibble: 51 × 11
#>    exposure covemax covec50 cove0 Covariates ci_low ci_med ci_high pi_low pi_med
#>       <dbl> <fct>   <fct>   <fct> <chr>       <dbl>  <dbl>   <dbl>  <dbl>  <dbl>
#>  1        0 1       1       1     ""          -1.71   5.47    13.9  -22.3   5.59
#>  2      100 1       1       1     ""          52.8   58.9     64.8   30.0  58.4 
#>  3      200 1       1       1     ""          68.0   73.0     77.9   45.9  73.4 
#>  4      300 1       1       1     ""          75.2   79.6     84.2   51.4  79.5 
#>  5      400 1       1       1     ""          79.0   83.4     88.1   56.9  83.7 
#>  6      500 1       1       1     ""          81.2   85.9     90.8   60.1  87.4 
#>  7      600 1       1       1     ""          82.7   87.7     92.9   60.5  88.0 
#>  8      700 1       1       1     ""          83.8   89.1     94.5   60.8  88.9 
#>  9      800 1       1       1     ""          84.6   90.1     95.7   62.9  89.4 
#> 10      900 1       1       1     ""          85.4   90.8     96.6   62.9  91.7 
#> # ℹ 41 more rows
#> # ℹ 1 more variable: pi_high <dbl>
…
Posterior draws of Emax model parameters can be extracted with
extract_param() function.

posterior.fit.emax <- extract_param(fit.emax)
posterior.fit.emax
#> # A tibble: 1,000 × 6
#>    mcmcid  emax    e0  ec50     gamma     sigma
#>     <int> <dbl> <dbl> <dbl> <dbl[1d]> <dbl[1d]>
#>  1      1  83.1 11.8   90.6         1      18.0
#>  2      2  98.7 -2.84  54.0         1      17.0
#>  3      3  95.0  4.01  77.4         1      13.7
#>  4      4  92.4  6.34  60.6         1      16.5
#>  5      5  91.6 10.7   65.1         1      16.5
#>  6      6 100.   4.21  72.4         1      16.2
#>  7      7  91.8  3.87  59.6         1      15.5
#>  8      8  86.2  6.69  54.2         1      20.6
#>  9      9  97.4  2.26  59.3         1      18.0
#> 10     10  85.1  8.93  54.5         1      17.5
#> # ℹ 990 more rows
…
